An overview of dplyr
…
---
## `filter`

#### a function for specifying which rows to keep

Example 1: How do we get all penguins of the Chinstrap species?

```r
chinstrap <- filter(penguins, species == "Chinstrap")
chinstrap
```

```
# A tibble: 68 x 8
   species island bill_length_mm bill_depth_mm flipper_length_… body_mass_g
   <fct>   <fct>           <dbl>         <dbl>            <int>       <int>
 1 Chinst… Dream            46.5          17.9              192        3500
 2 Chinst… Dream            50            19.5              196        3900
 3 Chinst… Dream            51.3          19.2              193        3650
 4 Chinst… Dream            45.4          18.7              188        3525
 5 Chinst… Dream            52.7          19.8              197        3725
 6 Chinst… Dream            45.2          17.8              198        3950
 7 Chinst… Dream            46.1          18.2              178        3250
 8 Chinst… Dream            51.3          18.2              197        3750
 9 Chinst… Dream            46            18.9              195        4150
10 Chinst… Dream            51.3          19.9              198        3700
# … with 58 more rows, and 2 more variables: sex <fct>, year <int>
```
…
#### a function for specifying which rows to keep

Example 2: How do we get penguins that are 4 kg or greater?

```r
penguins_4k <- filter(penguins, body_mass_g >= 4000)
penguins_4k
```

```
# A tibble: 177 x 8
   species island bill_length_mm bill_depth_mm flipper_length_… body_mass_g
   <fct>   <fct>           <dbl>         <dbl>            <int>       <int>
 1 Adelie  Torge…           39.2          19.6              195        4675
 2 Adelie  Torge…           42            20.2              190        4250
 3 Adelie  Torge…           34.6          21.1              198        4400
 4 Adelie  Torge…           42.5          20.7              197        4500
 5 Adelie  Torge…           46            21.5              194        4200
 6 Adelie  Dream            39.2          21.1              196        4150
 7 Adelie  Dream            39.8          19.1              184        4650
 8 Adelie  Dream            44.1          19.7              196        4400
 9 Adelie  Dream            39.6          18.8              190        4600
10 Adelie  Dream            42.3          21.2              191        4150
# … with 167 more rows, and 2 more variables: sex <fct>, year <int>
```
…
```r
penguins %>% select(1, 3, 5)
```

---
### `select` by position

Example: select columns 1, 3 and 5 from `penguins`

```r
penguins %>% select(1, 3, 5)
```

```
# A tibble: 344 x 3
   species bill_length_mm flipper_length_mm
   <fct>            <dbl>             <int>
 1 Adelie            39.1               181
 2 Adelie            39.5               186
 3 Adelie            40.3               195
 4 Adelie            NA                  NA
 5 Adelie            36.7               193
 6 Adelie            39.3               190
 7 Adelie            38.9               181
 8 Adelie            39.2               195
 9 Adelie            34.1               193
10 Adelie            42                 190
# … with 334 more rows
```
…
```r
penguins %>% select(species, island, body_mass_g)
```

---
### `select` by name

Example: select *species*, *island* and *body_mass_g*

```r
penguins %>% select(species, island, body_mass_g)
```

```
# A tibble: 344 x 3
   species island    body_mass_g
   <fct>   <fct>           <int>
 1 Adelie  Torgersen        3750
 2 Adelie  Torgersen        3800
 3 Adelie  Torgersen        3250
 4 Adelie  Torgersen          NA
 5 Adelie  Torgersen        3450
 6 Adelie  Torgersen        3650
 7 Adelie  Torgersen        3625
 8 Adelie  Torgersen        4675
 9 Adelie  Torgersen        3475
10 Adelie  Torgersen        4250
# … with 334 more rows
```
…
---
### `select` by a function of column names

Example: Choose all columns that contain "mm":

```r
penguins_mm <- penguins %>% select(contains("mm"))

penguins_mm
```

```
# A tibble: 344 x 3
   bill_length_mm bill_depth_mm flipper_length_mm
            <dbl>         <dbl>             <int>
 1           39.1          18.7               181
 2           39.5          17.4               186
 3           40.3          18                 195
 4           NA            NA                  NA
 5           36.7          19.3               193
 6           39.3          20.6               190
 7           38.9          17.8               181
 8           39.2          19.6               195
 9           34.1          18.1               193
10           42            20.2               190
# … with 334 more rows
```
…
---
### `select` by a function of column names

Example: How to choose all columns starting with "bill":

```r
bills_df <- penguins %>% select(starts_with("bill"))

bills_df
```

```
# A tibble: 344 x 2
   bill_length_mm bill_depth_mm
            <dbl>         <dbl>
 1           39.1          18.7
 2           39.5          17.4
 3           40.3          18  
 4           NA            NA  
 5           36.7          19.3
 6           39.3          20.6
 7           38.9          17.8
 8           39.2          19.6
 9           34.1          18.1
10           42            20.2
# … with 334 more rows
```
…
```r
penguins %>% select(where(is.numeric))
```

---
### `select` by type 

Example: choose all numeric columns:

```r
penguins %>% select(where(is.numeric))
```

```
# A tibble: 344 x 5
   bill_length_mm bill_depth_mm flipper_length_mm body_mass_g  year
            <dbl>         <dbl>             <int>       <int> <int>
 1           39.1          18.7               181        3750  2007
 2           39.5          17.4               186        3800  2007
 3           40.3          18                 195        3250  2007
 4           NA            NA                  NA          NA  2007
 5           36.7          19.3               193        3450  2007
 6           39.3          20.6               190        3650  2007
 7           38.9          17.8               181        3625  2007
 8           39.2          19.6               195        4675  2007
 9           34.1          18.1               193        3475  2007
10           42            20.2               190        4250  2007
# … with 334 more rows
```
…
```r
penguins %>% select(where(is.factor) | contains("bill"))
```

---
### `select` by logical combination

Example: choose all factor variables or variables containing the word "bill"

```r
penguins %>% select(where(is.factor) | contains("bill"))
```

```
# A tibble: 344 x 5
   species island    sex    bill_length_mm bill_depth_mm
   <fct>   <fct>     <fct>           <dbl>         <dbl>
 1 Adelie  Torgersen male             39.1          18.7
 2 Adelie  Torgersen female           39.5          17.4
 3 Adelie  Torgersen female           40.3          18  
 4 Adelie  Torgersen <NA>             NA            NA  
 5 Adelie  Torgersen female           36.7          19.3
 6 Adelie  Torgersen male             39.3          20.6
 7 Adelie  Torgersen female           38.9          17.8
 8 Adelie  Torgersen male             39.2          19.6
 9 Adelie  Torgersen <NA>             34.1          18.1
10 Adelie  Torgersen <NA>             42            20.2
# … with 334 more rows
```
…
---
### Example using `group_by` with `mutate`

What if we wanted to give each penguin a number within its species? 

```r
numbered_penguins <- penguins %>% 
  group_by(species) %>%
  mutate(penguin_num = 1:n())

numbered_penguins
```

```
# A tibble: 344 x 9
# Groups:   species [3]
   species island bill_length_mm bill_depth_mm flipper_length_… body_mass_g
   <fct>   <fct>           <dbl>         <dbl>            <int>       <int>
 1 Adelie  Torge…           39.1          18.7              181        3750
 2 Adelie  Torge…           39.5          17.4              186        3800
 3 Adelie  Torge…           40.3          18                195        3250
 4 Adelie  Torge…           NA            NA                 NA          NA
 5 Adelie  Torge…           36.7          19.3              193        3450
 6 Adelie  Torge…           39.3          20.6              190        3650
 7 Adelie  Torge…           38.9          17.8              181        3625
 8 Adelie  Torge…           39.2          19.6              195        4675
 9 Adelie  Torge…           34.1          18.1              193        3475
10 Adelie  Torge…           42            20.2              190        4250
# … with 334 more rows, and 3 more variables: sex <fct>, year <int>,
#   penguin_num <int>
```
…
#### A function/verb to rename columns

Works like `select`

Example: renaming by position

```r
penguins_different <- penguins %>% rename(bill_length = 3, 
                                          bill_depth = 4)

penguins_different
```

```
# A tibble: 344 x 8
   species island bill_length bill_depth flipper_length_… body_mass_g sex  
   <fct>   <fct>        <dbl>      <dbl>            <int>       <int> <fct>
 1 Adelie  Torge…        39.1       18.7              181        3750 male 
 2 Adelie  Torge…        39.5       17.4              186        3800 fema…
 3 Adelie  Torge…        40.3       18                195        3250 fema…
 4 Adelie  Torge…        NA         NA                 NA          NA <NA> 
 5 Adelie  Torge…        36.7       19.3              193        3450 fema…
 6 Adelie  Torge…        39.3       20.6              190        3650 male 
 7 Adelie  Torge…        38.9       17.8              181        3625 fema…
 8 Adelie  Torge…        39.2       19.6              195        4675 male 
 9 Adelie  Torge…        34.1       18.1              193        3475 <NA> 
10 Adelie  Torge…        42         20.2              190        4250 <NA> 
# … with 334 more rows, and 1 more variable: year <int>
```

---
### `rename_with`

`rename_with` can be used with a specified transformation (and optionally with a column selection). 

Example: rename all columns to be uppercase

```r
penguins %>% rename_with(toupper)
```

```
# A tibble: 344 x 8
   SPECIES ISLAND BILL_LENGTH_MM BILL_DEPTH_MM FLIPPER_LENGTH_… BODY_MASS_G
   <fct>   <fct>           <dbl>         <dbl>            <int>       <int>
 1 Adelie  Torge…           39.1          18.7              181        3750
 2 Adelie  Torge…           39.5          17.4              186        3800
 3 Adelie  Torge…           40.3          18                195        3250
 4 Adelie  Torge…           NA            NA                 NA          NA
 5 Adelie  Torge…           36.7          19.3              193        3450
 6 Adelie  Torge…           39.3          20.6              190        3650
 7 Adelie  Torge…           38.9          17.8              181        3625
 8 Adelie  Torge…           39.2          19.6              195        4675
 9 Adelie  Torge…           34.1          18.1              193        3475
10 Adelie  Torge…           42            20.2              190        4250
# … with 334 more rows, and 2 more variables: SEX <fct>, YEAR <int>
```

---
## `rename_with`

```r
penguins %>% rename_with(toupper, where(is.numeric))
```

```
# A tibble: 344 x 8
   species island BILL_LENGTH_MM BILL_DEPTH_MM FLIPPER_LENGTH_… BODY_MASS_G
   <fct>   <fct>           <dbl>         <dbl>            <int>       <int>
 1 Adelie  Torge…           39.1          18.7              181        3750
 2 Adelie  Torge…           39.5          17.4              186        3800
 3 Adelie  Torge…           40.3          18                195        3250
 4 Adelie  Torge…           NA            NA                 NA          NA
 5 Adelie  Torge…           36.7          19.3              193        3450
 6 Adelie  Torge…           39.3          20.6              190        3650
 7 Adelie  Torge…           38.9          17.8              181        3625
 8 Adelie  Torge…           39.2          19.6              195        4675
 9 Adelie  Torge…           34.1          18.1              193        3475
10 Adelie  Torge…           42            20.2              190        4250
# … with 334 more rows, and 2 more variables: sex <fct>, YEAR <int>
```
…
```r
penguins %>% relocate(where(is.factor))
```

---
## `relocate` examples

Example: bring all the factor variables to the front 

```r
penguins %>% relocate(where(is.factor))
```

```
# A tibble: 344 x 8
   species island sex   bill_length_mm bill_depth_mm flipper_length_…
   <fct>   <fct>  <fct>          <dbl>         <dbl>            <int>
 1 Adelie  Torge… male            39.1          18.7              181
 2 Adelie  Torge… fema…           39.5          17.4              186
 3 Adelie  Torge… fema…           40.3          18                195
 4 Adelie  Torge… <NA>            NA            NA                 NA
 5 Adelie  Torge… fema…           36.7          19.3              193
 6 Adelie  Torge… male            39.3          20.6              190
 7 Adelie  Torge… fema…           38.9          17.8              181
 8 Adelie  Torge… male            39.2          19.6              195
 9 Adelie  Torge… <NA>            34.1          18.1              193
10 Adelie  Torge… <NA>            42            20.2              190
# … with 334 more rows, and 2 more variables: body_mass_g <int>, year <int>
```

---
## `relocate` examples

Example: relocate all factor variables after *body_mass_g*  

```r
penguins %>% relocate(contains("bill"), .after = body_mass_g)
```

```
# A tibble: 344 x 8
   species island flipper_length_… body_mass_g bill_length_mm bill_depth_mm
   <fct>   <fct>             <int>       <int>          <dbl>         <dbl>
 1 Adelie  Torge…              181        3750           39.1          18.7
 2 Adelie  Torge…              186        3800           39.5          17.4
 3 Adelie  Torge…              195        3250           40.3          18  
 4 Adelie  Torge…               NA          NA           NA            NA  
 5 Adelie  Torge…              193        3450           36.7          19.3
 6 Adelie  Torge…              190        3650           39.3          20.6
 7 Adelie  Torge…              181        3625           38.9          17.8
 8 Adelie  Torge…              195        4675           39.2          19.6
 9 Adelie  Torge…              193        3475           34.1          18.1
10 Adelie  Torge…              190        4250           42            20.2
# … with 334 more rows, and 2 more variables: sex <fct>, year <int>
```
…
```r
rescale01 <- function(x) {
  rng <- range(x, na.rm = TRUE)
  (x - rng[1]) / (rng[2] - rng[1])
}

penguins_rescaled <- penguins %>% 
  mutate(across(where(is.numeric), rescale01))

penguins_rescaled
```

```
# A tibble: 344 x 8
   species island bill_length_mm bill_depth_mm flipper_length_… body_mass_g
   <fct>   <fct>           <dbl>         <dbl>            <dbl>       <dbl>
 1 Adelie  Torge…         0.255          0.667            0.153       0.292
 2 Adelie  Torge…         0.269          0.512            0.237       0.306
 3 Adelie  Torge…         0.298          0.583            0.390       0.153
 4 Adelie  Torge…        NA             NA               NA          NA    
 5 Adelie  Torge…         0.167          0.738            0.356       0.208
 6 Adelie  Torge…         0.262          0.893            0.305       0.264
 7 Adelie  Torge…         0.247          0.560            0.153       0.257
 8 Adelie  Torge…         0.258          0.774            0.390       0.549
 9 Adelie  Torge…         0.0727         0.595            0.356       0.215
10 Adelie  Torge…         0.360          0.845            0.305       0.431
# … with 334 more rows, and 2 more variables: sex <fct>, year <dbl>
```
…
Question: what if we wanted to create a new column that was the average of the <i>bill_depth_mm</i> and <i>bill_length_mm</i> variables?

You might try:

```r
penguins %>% select(contains("bill")) %>% 
  mutate(avg = mean(c(bill_length_mm, bill_depth_mm), na.rm = TRUE))
```

```
# A tibble: 344 x 3
   bill_length_mm bill_depth_mm   avg
            <dbl>         <dbl> <dbl>
 1           39.1          18.7  30.5
 2           39.5          17.4  30.5
 3           40.3          18    30.5
 4           NA            NA    30.5
 5           36.7          19.3  30.5
 6           39.3          20.6  30.5
 7           38.9          17.8  30.5
 8           39.2          19.6  30.5
 9           34.1          18.1  30.5
10           42            20.2  30.5
# … with 334 more rows
```
…
---
### Using `rowwise`

We can use `rowwise` prior to mutate instead 

```r
penguins %>% 
  select(contains("bill")) %>%
  rowwise() %>% 
  mutate(avg = mean(c(bill_length_mm, bill_depth_mm), na.rm = TRUE))
```

```
# A tibble: 344 x 3
# Rowwise: 
   bill_length_mm bill_depth_mm   avg
            <dbl>         <dbl> <dbl>
 1           39.1          18.7  28.9
 2           39.5          17.4  28.4
 3           40.3          18    29.2
 4           NA            NA   NaN  
 5           36.7          19.3  28  
 6           39.3          20.6  30.0
 7           38.9          17.8  28.4
 8           39.2          19.6  29.4
 9           34.1          18.1  26.1
10           42            20.2  31.1
# … with 334 more rows
```
…
